{
    "datasets": [
        {
            "label": "Backend",
            "data": [
                {
                    "x" : 80, 
                    "y" : 85, 
                    "r" : 50,
                    "label": "C# & .NET"
                },
                {
                    "x" : 90, 
                    "y" : 80, 
                    "r" : 40,
                    "label": ".NET Core"
                },
                {
                    "x" : 60, 
                    "y" : 85, 
                    "r" : 50,
                    "label": "ORM Entity Framework"
                },
                {
                    "x" : 60, 
                    "y" : 80, 
                    "r" : 50,
                    "label": "MVC"
                },
                {
                    "x" : 60, 
                    "y" : 60, 
                    "r" : 20,
                    "label": "Restful"
                },
                {
                    "x" : 70, 
                    "y" : 65, 
                    "r" : 20,
                    "label": "SignalR"
                },
                {
                    "x" : 70, 
                    "y" : 20, 
                    "r" : 10,
                    "label": "RabbitMq"
                },
                {
                    "x" : 85, 
                    "y" : 10, 
                    "r" : 5,
                    "label": "Apache Kafka"
                }
            ],
            "backgroundColor": "rgba(255, 99, 132, 0.5)"
        },
        {
            "label": "Frontend",
            "data": [
                {
                    "x" : 50, 
                    "y" : 60, 
                    "r" : 30,
                    "label": "Javascript"
                },
                {
                    "x" : 65, 
                    "y" : 50, 
                    "r" : 25,
                    "label": "React"
                },
                {
                    "x" : 65, 
                    "y" : 65, 
                    "r" : 40,
                    "label": "HTML & CSS"
                },
                {
                    "x" : 80, 
                    "y" : 65, 
                    "r" : 25,
                    "label": "Prototyping"
                }
            ],
            "backgroundColor": "rgba(92, 228, 29, 0.4)"
        },
        {   
            "label": "Data",
            "data": [
                {
                    "x" : 90, 
                    "y" : 65, 
                    "r" : 40,
                    "label": "T-SQL"
                },
                {
                    "x" : 50, 
                    "y" : 30, 
                    "r" : 5,
                    "label": "NoSql"
                },
                {
                    "x" : 85, 
                    "y" : 30, 
                    "r" : 15,
                    "label": "Hadoop"
                },
                {
                    "x" : 85, 
                    "y" : 15, 
                    "r" : 5,
                    "label": "Elastic search"
                }
            ],
            "backgroundColor": "rgba(1, 5, 250, 0.2)"
        },
        {   
            "label": "DevOps",
            "data": [
                {
                    "x" : 85, 
                    "y" : 55, 
                    "r" : 25,
                    "label": "Web security"
                },
                {
                    "x" : 75, 
                    "y" : 65, 
                    "r" : 25,
                    "label": "Azure"
                },
                {
                    "x" : 70, 
                    "y" : 55, 
                    "r" : 15,
                    "label": "TDD"
                },
                {
                    "x" : 75, 
                    "y" : 20, 
                    "r" : 15,
                    "label": "Docker"
                }
            ],
            "backgroundColor": "rgba(29, 182, 228, 0.4)"
        },
        {   
            "label": "Architecture",
            "data": [
                {
                    "x" : 100, 
                    "y" : 40, 
                    "r" : 15,
                    "label": "Technical \nDesign"
                },
                {
                    "x" : 95, 
                    "y" : 10, 
                    "r" : 10,
                    "label": "Microservices"
                },
                {
                    "x" : 95, 
                    "y" : 5, 
                    "r" : 5,
                    "label": "Distributed System"
                },
                {
                    "x" : 95, 
                    "y" : 55, 
                    "r" : 15,
                    "label": "Event driven"
                },
                {
                    "x" : 95, 
                    "y" : 75, 
                    "r" : 50,
                    "label": "OOP"
                }
            ],
            "backgroundColor": "rgba(198, 29, 228,0.4)"
        },
        {
            "label": "",
            "display": "false",
            "data": [
                {
                    "x" : 0, 
                    "y" : 0, 
                    "r" : 1,
                     "label": ""
                },
                {
                    "x" : 100, 
                    "y" : 100, 
                    "r" : 1,
                     "label": ""
                }
                
            ],
            "borderColor" : "transparent",
            "backgroundColor": [
                "transparent"
            ]
        }
    ]
}